…
Here, each row represents the sum of all transactions on a given day, for Alice's account.

## Weekday transactions

Earlier I pointed out that Bob's account has his transactions listed as occurring on days of the week. Here's what his balance sheet looks like:


{% highlight r %}
bob
{% endhighlight %}



{% highlight text %}
## # A tibble: 31 × 4
## # Groups:   bank_account [1]
##    date       amount bank_account balance
##    <date>      <dbl> <chr>          <dbl>
##  1 2022-11-01   -107 Bob Primary     -107
##  2 2022-11-02      0 Bob Primary     -107
##  3 2022-11-03      0 Bob Primary     -107
##  4 2022-11-04    -70 Bob Primary     -177
##  5 2022-11-05      0 Bob Primary     -177
##  6 2022-11-06      0 Bob Primary     -177
##  7 2022-11-07    300 Bob Primary      123
##  8 2022-11-08   -225 Bob Primary     -102
##  9 2022-11-09      0 Bob Primary     -102
## 10 2022-11-10      0 Bob Primary     -102
## # … with 21 more rows
…
